{
    "MANUFACTURER": "OnePlus",
    "MODEL": "ONEPLUS A5000",
    "HARDWARE": "qcom",
    "DEVICE": "OnePlus5",
    "PRODUCT": "OnePlus5",
    "CPU_MANUFACTURER": "Qualcomm Technologies, Inc MSM8998",
    "CPU": "msm8998",
    "FINGERPRINT": true,
    "FingerprintPM": true,
    "IrisPM": false,
    "MangedUsersPM": true,
    "securelyDeleteUsersPM": true,
    "SecureLockscreenPM": false,
    "ro.product.first_api_level": "25",
    "ro.boot.flash.locked": "1",
    "ro.boot.verifiedbootstate": "green",
    "ro.boot.veritymode": "enforcing",
    "ro.crypto.type": "file",
    "KeyStore": true,
    "TEE": true,
    "Strongbox": false,
    "StrongboxPM": false,
    "DeviceAdmin": true,
    "DRM": {
        "drm.service.enabled": "true",
        "modular": {
            "widevine": {
                "properties": {
                    "vendor": "Google",
                    "version": "14.0.0",
                    "description": "Widevine CDM",
                    "algorithms": "AES\/CBC\/NoPadding,HmacSHA256",
                    "securityLevel": "L3",
                    "systemId": "7283",
                    "privacyMode": "disable",
                    "sessionSharing": "disable",
                    "usageReportingSupport": "True",
                    "appId": "",
                    "origin": "",
                    "hdcpLevel": "Unprotected",
                    "maxHdcpLevel": "Unprotected",
                    "maxNumberOfSessions": "16",
                    "numberOfOpenSessions": "1"
                },
                "events": []
            }
        },
        "classic": {
            "engines": [
                "OMA V1 Forward Lock"
            ]
        }
    }
}