{
    "MANUFACTURER": "samsung",
    "MODEL": "SM-G980F",
    "HARDWARE": "exynos990",
    "DEVICE": "x1s",
    "PRODUCT": "x1seea",
    "CPU_MANUFACTURER": "Unknow",
    "CPU": "universal990",
    "FINGERPRINT": true,
    "BiometricQuality": "STRONG",
    "FingerprintPM": true,
    "IrisPM": false,
    "MangedUsersPM": true,
    "securelyDeleteUsersPM": true,
    "SecureLockscreenPM": true,
    "ro.product.first_api_level": "29",
    "ro.boot.flash.locked": "1",
    "ro.boot.verifiedbootstate": "green",
    "ro.boot.veritymode": "enforcing",
    "ro.crypto.type": "file",
    "KeyStore": true,
    "TEE": true,
    "Strongbox": true,
    "StrongboxPM": true,
    "DeviceAdmin": true,
    "DRM": {
        "drm.service.enabled": "",
        "modular": {
            "widevine": {
                "properties": {
                    "vendor": "Google",
                    "version": "16.0.0",
                    "description": "Widevine CDM",
                    "algorithms": "AES\/CBC\/NoPadding,HmacSHA256",
                    "securityLevel": "L1",
                    "systemId": "19167",
                    "privacyMode": "disable",
                    "sessionSharing": "disable",
                    "usageReportingSupport": "True",
                    "appId": "",
                    "origin": "",
                    "hdcpLevel": "Disconnected",
                    "maxHdcpLevel": "HDCP-2.2",
                    "maxNumberOfSessions": "63",
                    "numberOfOpenSessions": "0"
                },
                "events": [
                    {
                        "Exception(openSession)": "android.media.NotProvisionedException: Failed to open session"
                    }
                ]
            }
        },
        "classic": {
            "engines": [
                "OMA V1 Forward Lock"
            ]
        }
    }
}